<svg width="98" height="40" viewBox="0 0 98 40" fill="none" xmlns="http://www.w3.org/2000/svg">
<path d="M56.432 13.49V15.164H53.102V26H51.05V15.164H47.702V13.49H56.432ZM62.8122 26.162C61.8762 26.162 61.0302 25.952 60.2742 25.532C59.5182 25.1 58.9242 24.5 58.4922 23.732C58.0602 22.952 57.8442 22.052 57.8442 21.032C57.8442 20.024 58.0662 19.13 58.5102 18.35C58.9542 17.57 59.5602 16.97 60.3282 16.55C61.0962 16.13 61.9542 15.92 62.9022 15.92C63.8502 15.92 64.7082 16.13 65.4762 16.55C66.2442 16.97 66.8502 17.57 67.2942 18.35C67.7382 19.13 67.9602 20.024 67.9602 21.032C67.9602 22.04 67.7322 22.934 67.2762 23.714C66.8202 24.494 66.1962 25.1 65.4042 25.532C64.6242 25.952 63.7602 26.162 62.8122 26.162ZM62.8122 24.38C63.3402 24.38 63.8322 24.254 64.2882 24.002C64.7562 23.75 65.1342 23.372 65.4222 22.868C65.7102 22.364 65.8542 21.752 65.8542 21.032C65.8542 20.312 65.7162 19.706 65.4402 19.214C65.1642 18.71 64.7982 18.332 64.3422 18.08C63.8862 17.828 63.3942 17.702 62.8662 17.702C62.3382 17.702 61.8462 17.828 61.3902 18.08C60.9462 18.332 60.5922 18.71 60.3282 19.214C60.0642 19.706 59.9322 20.312 59.9322 21.032C59.9322 22.1 60.2022 22.928 60.7422 23.516C61.2942 24.092 61.9842 24.38 62.8122 24.38ZM78.9167 16.082L72.8327 30.662H70.7087L72.7247 25.838L68.8187 16.082H71.1047L73.8947 23.642L76.7927 16.082H78.9167ZM89.5552 20.798C89.5552 21.17 89.5312 21.506 89.4832 21.806H81.9052C81.9652 22.598 82.2592 23.234 82.7872 23.714C83.3152 24.194 83.9632 24.434 84.7312 24.434C85.8352 24.434 86.6152 23.972 87.0712 23.048H89.2852C88.9852 23.96 88.4392 24.71 87.6472 25.298C86.8672 25.874 85.8952 26.162 84.7312 26.162C83.7832 26.162 82.9312 25.952 82.1752 25.532C81.4312 25.1 80.8432 24.5 80.4112 23.732C79.9912 22.952 79.7812 22.052 79.7812 21.032C79.7812 20.012 79.9852 19.118 80.3932 18.35C80.8132 17.57 81.3952 16.97 82.1392 16.55C82.8952 16.13 83.7592 15.92 84.7312 15.92C85.6672 15.92 86.5012 16.124 87.2332 16.532C87.9652 16.94 88.5352 17.516 88.9432 18.26C89.3512 18.992 89.5552 19.838 89.5552 20.798ZM87.4132 20.15C87.4012 19.394 87.1312 18.788 86.6032 18.332C86.0752 17.876 85.4212 17.648 84.6412 17.648C83.9332 17.648 83.3272 17.876 82.8232 18.332C82.3192 18.776 82.0192 19.382 81.9232 20.15H87.4132ZM93.6266 17.522C93.9266 17.018 94.3226 16.628 94.8146 16.352C95.3186 16.064 95.9126 15.92 96.5966 15.92V18.044H96.0746C95.2706 18.044 94.6586 18.248 94.2386 18.656C93.8306 19.064 93.6266 19.772 93.6266 20.78V26H91.5746V16.082H93.6266V17.522Z" fill="#111827"/>
<path d="M0 12.9016C0 11.1073 0.96143 9.45061 2.51931 8.5604L15.0193 1.41754C16.5565 0.539161 18.4435 0.539161 19.9807 1.41754L32.4807 8.5604C34.0386 9.45061 35 11.1073 35 12.9016V27.0984C35 28.8927 34.0386 30.5494 32.4807 31.4396L19.9807 38.5825C18.4435 39.4608 16.5565 39.4608 15.0193 38.5825L2.51931 31.4396C0.961431 30.5494 0 28.8927 0 27.0984V12.9016Z" fill="#FFFEE5"/>
<path d="M1.66666 13.7161C1.66666 11.9319 2.61739 10.2829 4.16147 9.38897L14.9948 3.11704C16.5444 2.21988 18.4555 2.21988 20.0052 3.11704L30.8385 9.38897C32.3826 10.2829 33.3333 11.9319 33.3333 13.7161V26.2839C33.3333 28.0681 32.3826 29.7171 30.8385 30.611L20.0052 36.883C18.4555 37.7801 16.5444 37.7801 14.9948 36.883L4.16148 30.611C2.61739 29.7171 1.66666 28.0681 1.66666 26.2839V13.7161Z" fill="#FDDD48"/>
<path d="M17.5 21.5695C17.5 19.6454 18.6041 17.892 20.3392 17.0605L30.9464 11.9772C32.0527 11.447 33.3333 12.2534 33.3333 13.4802V26.2839C33.3333 28.0681 32.3826 29.7171 30.8385 30.611L20.0017 36.885C18.8906 37.5282 17.5 36.7265 17.5 35.4426L17.5 29.1667L17.5 21.5695Z" fill="#FFCC00"/>
<path d="M1.66666 13.4841C1.66666 12.2563 2.9491 11.45 4.05558 11.982L14.6667 17.0844C16.3986 17.9172 17.5 19.6688 17.5 21.5905V34.7812C17.5 34.7812 17.5136 35.9853 17.7941 36.3907C18.0345 36.738 18.421 36.9782 18.7706 37.0532C19.2755 37.1615 19.7939 36.9957 19.7939 36.9957C18.3756 37.8227 16.6227 37.8255 15.2019 37.0029L4.16148 30.611C2.61739 29.7171 1.66666 28.0681 1.66666 26.2839V13.4841Z" fill="#E6B800"/>
</svg>
